<?xml version="1.0"?>
<svg version="1.1" xmlns="http://www.w3.org/2000/svg"
     viewbox="0 0 100 100" width="100" height="100">
     <circle cx="40" cy="40" r="30" stroke="#2b78bf" stroke-width="3" fill="none"/>
    <line x1="20" y1="40" 
          x2="60" y2="40" 
          stroke="#2b78bf" 
          stroke-width="6"/>
  </g>
</svg>
