<?xml version="1.0"?>
<svg version="1.1" xmlns="http://www.w3.org/2000/svg"
     viewbox="0 0 100 100" width="100" height="100">
  <g stroke="#434144" fill="transparent" stroke-linecap="round">
    <path stroke-width="2" d="M 15 30 L 45 30 M 30 30 L 30 60 L 60 60 L 60 75 L 75 75" />
    <path stroke-width="10" d="M 15 30 L 15 30 M 45 30 L 45 30 M 45 60 L 45 60 M 75 75 L 75 75" />
  </g>
</svg>
