{
  "id": 1,
  "name": "exercitation elit magna velit",
  "attributes": [],
  "items": [
    {
      "name": "sint labore reprehenderit eiusmod",
      "id": 2,
      "items": [
        {
          "name": "fugiat cupidatat sunt velit",
          "id": 3,
          "items": [
            {
              "id": 4,
              "name": "voluptate culpa duis amet",
              "items": [
                {
                  "name": "officia ad irure amet",
                  "id": 5,
                  "items": [
                    {
                      "id": 6,
                      "name": "consectetur excepteur do eiusmod",
                      "items": [],
                      "attributes": [],
                      "related": [],
                      "reviewed": true
                    },
                    {
                      "id": 7,
                      "name": "nulla fugiat Lorem sint",
                      "items": [],
                      "attributes": [],
                      "related": [],
                      "reviewed": true
                    },
                    {
                      "id": 8,
                      "name": "dolor in nisi labore",
                      "items": [],
                      "attributes": [],
                      "related": [],
                      "reviewed": true
                    }
                  ],
                  "attributes": [],
                  "related": [],
                  "reviewed": true
                }
              ],
              "attributes": [],
              "related": [],
              "reviewed": true
            }
          ],
          "attributes": [],
          "related": [],
          "reviewed": false
        }
      ],
      "attributes": [],
      "related": [],
      "reviewed": true
    },
    {
      "name": "pariatur culpa culpa irure",
      "id": 9,
      "items": [
        {
          "name": "ad nisi aliqua veniam",
          "id": 10,
          "items": [
            {
              "id": 11,
              "name": "reprehenderit cillum sunt enim",
              "items": [
                {
                  "name": "proident ea tempor deserunt",
                  "id": 12,
                  "items": [
                    {
                      "id": 13,
                      "name": "sint id eiusmod anim",
                      "items": [],
                      "attributes": [],
                      "related": [],
                      "reviewed": true
                    },
                    {
                      "id": 14,
                      "name": "laboris reprehenderit anim proident",
                      "items": [],
                      "attributes": [],
                      "related": [],
                      "reviewed": true
                    },
                    {
                      "id": 15,
                      "name": "sunt eiusmod culpa ad",
                      "items": [],
                      "attributes": [],
                      "related": [],
                      "reviewed": true
                    }
                  ],
                  "attributes": [],
                  "related": [],
                  "reviewed": true
                }
              ],
              "attributes": [],
              "related": [],
              "reviewed": true
            }
          ],
          "attributes": [],
          "related": [],
          "reviewed": false
        }
      ],
      "attributes": [],
      "related": [],
      "reviewed": false
    },
    {
      "name": "eiusmod sint consequat elit",
      "id": 16,
      "items": [
        {
          "name": "eu ad eiusmod velit",
          "id": 17,
          "items": [
            {
              "id": 18,
              "name": "velit adipisicing mollit aliquip",
              "items": [
                {
                  "name": "aute occaecat laborum reprehenderit",
                  "id": 19,
                  "items": [
                    {
                      "id": 20,
                      "name": "Lorem laborum commodo velit",
                      "items": [],
                      "attributes": [],
                      "related": [],
                      "reviewed": true
                    },
                    {
                      "id": 21,
                      "name": "sint esse occaecat ea",
                      "items": [],
                      "attributes": [],
                      "related": [],
                      "reviewed": false
                    },
                    {
                      "id": 22,
                      "name": "commodo esse nulla excepteur",
                      "items": [],
                      "attributes": [],
                      "related": [],
                      "reviewed": true
                    }
                  ],
                  "attributes": [],
                  "related": [],
                  "reviewed": true
                }
              ],
              "attributes": [],
              "related": [],
              "reviewed": true
            }
          ],
          "attributes": [],
          "related": [],
          "reviewed": false
        }
      ],
      "attributes": [],
      "related": [],
      "reviewed": true
    },
    {
      "name": "officia nisi proident et",
      "id": 23,
      "items": [
        {
          "name": "ad aute labore ad",
          "id": 24,
          "items": [
            {
              "id": 25,
              "name": "ut in excepteur officia",
              "items": [
                {
                  "name": "officia veniam duis sit",
                  "id": 26,
                  "items": [
                    {
                      "id": 27,
                      "name": "ea labore ea sint",
                      "items": [],
                      "attributes": [],
                      "related": [],
                      "reviewed": false
                    },
                    {
                      "id": 28,
                      "name": "amet sint dolor ullamco",
                      "items": [],
                      "attributes": [],
                      "related": [],
                      "reviewed": false
                    },
                    {
                      "id": 29,
                      "name": "magna in excepteur consequat",
                      "items": [],
                      "attributes": [],
                      "related": [],
                      "reviewed": false
                    }
                  ],
                  "attributes": [],
                  "related": [],
                  "reviewed": false
                }
              ],
              "attributes": [],
              "related": [],
              "reviewed": true
            }
          ],
          "attributes": [],
          "related": [],
          "reviewed": true
        }
      ],
      "attributes": [],
      "related": [],
      "reviewed": true
    },
    {
      "name": "proident veniam officia aliquip",
      "id": 30,
      "items": [
        {
          "name": "nisi minim sint nulla",
          "id": 31,
          "items": [
            {
              "id": 32,
              "name": "pariatur eu duis irure",
              "items": [
                {
                  "name": "aliqua id exercitation elit",
                  "id": 33,
                  "items": [
                    {
                      "id": 34,
                      "name": "cillum irure ullamco nostrud",
                      "items": [],
                      "attributes": [],
                      "related": [],
                      "reviewed": true
                    },
                    {
                      "id": 35,
                      "name": "proident laborum do elit",
                      "items": [],
                      "attributes": [],
                      "related": [],
                      "reviewed": true
                    },
                    {
                      "id": 36,
                      "name": "duis consequat ullamco adipisicing",
                      "items": [],
                      "attributes": [],
                      "related": [],
                      "reviewed": true
                    }
                  ],
                  "attributes": [],
                  "related": [],
                  "reviewed": false
                }
              ],
              "attributes": [],
              "related": [],
              "reviewed": false
            }
          ],
          "attributes": [],
          "related": [],
          "reviewed": false
        }
      ],
      "attributes": [],
      "related": [],
      "reviewed": false
    }
  ],
  "related": [],
  "reviewed": false
}
