{
  "referenceData": {
    "categoryOne": {
      "subCategoryOne": [
        { "name": "datum 1.1.1", "id": 1, "deleted": false },
        { "name": "datum 1.1.2", "id": 2, "deleted": false }
      ],
      "subCategoryTwo": [
        { "name": "datum 1.2.1", "id": 3, "deleted": false },
        { "name": "datum 1.2.2", "id": 4, "deleted": true }
      ]
    },
    "categoryTwo": {
       "subCategoryOne": [
        { "name": "datum 2.1.1", "id": 5, "deleted": true },
        { "name": "datum 2.1.2", "id": 6, "deleted": true }
      ]
    }
  }
}
